[
  {
    "model": "categories.Category",
    "pk": 1,
    "fields": {
      "name": "memo",
      "description": "Try to remember everything",
      "priority": 3
    }
  },
  {
    "model": "categories.Category",
    "pk": 2,
    "fields": {
      "name": "reading",
      "description": "Read fast as possible",
      "priority": 5
    }
  },
  {
    "model": "categories.Category",
    "pk": 3,
    "fields": {
      "name": "coding",
      "description": "Skill your work",
      "priority": 7
    }
  }
]