[
  {
    "model": "tasks.Task",
    "pk": 1,
    "fields": {
      "category": 1,
      "time_planed": "00:25"
    }
  },
  {
    "model": "tasks.Task",
    "pk": 2,
    "fields": {
      "category": 2,
      "time_planed": "00:55"
    }
  },
  {
    "model": "tasks.Task",
    "pk": 3,
    "fields": {
      "category": 3,
      "time_planed": "02:15"
    }
  },
  {
    "model": "tasks.Task",
    "pk": 4,
    "fields": {
      "category": 2,
      "time_planed": "01:25"
    }
  }
]